"NOMBRE","APELLIDO_PATERNO","APELLIDO_MATERNO","CORREO_ELECTRONICO","CORREO_ELECTRONICO2","TELEFONO1","TELEFONO2","TELEFONO3","CIUDAD","ESTADO","PAIS","CAMPUS","NIVEL_INTERES","MODALIDAD","PERIODO","PROGRAMA_DE_INTERES","COMENTARIOS","ORIGEN","DETALLE_DE_ORIGEN","FECHA_DE_REGISTRO","WEB_ID","ANALYTICS","PERMITIR_CORREO","REQUISITO_ESTUDIOS","REQUISITO_CERTIFICADO","REQUISITO_PRESUPUESTO","CUSTOM1","CUSTOM2","CUSTOM3","CUSTOM4","CUSTOM5","CUSTOM6","CUSTOM7","CUSTOM8","CUSTOM9","CUSTOM10"
"test","test","","test@hotmail.com","","55555555555","","","","","","2303","4","","","","","","11","18/07/2014 11:44","","UA-5964406-1","","","","","","","","","","","","","",""
"test","test","","test@hotmail.com","","55555555555","","","","","","1106","4","","","","","","11","18/07/2014 11:46","","UA-5964406-1","","","","","","","","","","","","","",""
"test","test","","test@hotmail.com","","55555555555","","","","","","1102","7","","","","","","11","18/07/2014 11:47","","UA-5964406-1","","","","","","","","","","","","","",""
"test","test","","test@hotmail.com","","55555555555","","","","","","2307","7","","","","","","11","18/07/2014 11:48","","UA-5964406-1","","","","","","","","","","","","","",""
"test","test","","test@hotmail.com","","55555555555","","","","","","1202","4","","","","","","11","18/07/2014 11:51","","UA-5964406-1","","","","","","","","","","","","","",""
"test","test","","test@hotmail.com","","55555555555","","","","","","1201","3","","","56","","","11","18/07/2014 11:54","","UA-5964406-1","","","","","","","","","","","","","",""
"test","test","","test@hotmail.com","","55555555555","","","","","","1502","4","","","101","","","11","18/07/2014 11:55","","UA-5964406-1","","","","","","","","","","","","","",""
"test","test","","test@hotmail.com","","55555555555","","","","","","2103","3","","","57","","","11","18/07/2014 12:05","","UA-5964406-1","","","","","","http://localhost:8080/landing/becas-apoyos-financieros/","","","","","","","",""
"test","test","","test@hotmail.com","","55555555555","","","","","","2101","4","","","77","","","11","18/07/2014 12:08","","UA-5964406-1","","","","","","http://localhost:8080/landing/becas-apoyos-financieros/","","","","","","","",""
"test","test","","test@hotmail.com","","55555555555","","","","","","1502","4","","","70","","","11","18/07/2014 12:14","","UA-5964406-1","","","","","","http://localhost:8080/landing/becas-apoyos-financieros/","","","","","","","",""
"test","test","","test@hotmail.com","","55555555555","","","","","","2103","4","","","96","","","11","18/07/2014 12:15","","UA-5964406-1","","","","","","http://localhost:8080/landing/becas-apoyos-financieros/","","","","","","","",""
"v1 ","ve2 tes","","test@hotmail.com","","55555555555","","","","","","2101","6","","","57","","","11","18/07/2014 12:19","","UA-5964406-1","","","","","","http://localhost:8080/landing/becas-apoyos-financieros/","","","","","","","",""
"v1 ","ve2 tes","","test@hotmail.com","","55555555555","","","","","","2303","7","","","102","","","11","18/07/2014 12:27","","UA-5964406-1","","","","","","http://localhost:8080/landing/becas-apoyos-financieros/","","","","","","","",""
"v1 ","ve2 tes","","test@hotmail.com","","555555555555","","","","","","1106","4","","","77","","","11","18/07/2014 12:32","","UA-5964406-1","","","","","","http://localhost:8080/landing/becas-apoyos-financieros/","","","","","","","",""
"v1 ","ve2 tes","","test@hotmail.com","","555555555555","","","","","","2309","7","","","104","","","11","18/07/2014 12:34","","UA-5964406-1","","","","","","http://localhost:8080/landing/becas-apoyos-financieros/","","","","","","","",""
"v1 ","ve2 tes","","test@hotmail.com","","555555555555","","","","","","1102","7","","","118","","","11","18/07/2014 12:35","","UA-5964406-1","","","","","","http://localhost:8080/landing/becas-apoyos-financieros/","","","","","","","",""
"v1 ","ve2 tes","","test@hotmail.com","","555555555555","","","","","","1202","7","","","95","","","11","18/07/2014 12:41","","UA-5964406-1","","","","","","http://localhost:8080/landing/becas-apoyos-financieros/","","","","","","","",""
"test","test","","mylifeisamais@live.com.mx","","56666666666","","","","","","1603","4","","","117","","","11","18/07/2014 18:08","","UA-5964406-1","","","","","","http://localhost:8080/landing/becas-apoyos-financieros/","","","","","","","",""
"Abdiel","Fierros","","grizazeo@gmail.com","","5559029003","","","","","","2201","2","","","95","","","11","18/07/2014 18:12","","UA-5964406-1","","","","","","http://localhost:8080/landing/becas-apoyos-financieros/","","","","","","","",""
"Abdiel","Fierros","","grizazeo@gmail.com","","1234567890","","","","","","1401","","","","","","","11","18/07/2014 21:21","","UA-5964406-1","","","","","","http://localhost:8080/landing/becas-apoyos-financieros/","","","","","","","",""
